{
	"info": {
		"_postman_id": "e1f50cac-69f6-4690-a02f-07cd4edffc9b",
		"name": "TrueToSizeApiTests",
		"schema": "https://schema.getpostman.com/json/collection/v2.1.0/collection.json"
	},
	"item": [
		{
			"name": "ping",
			"event": [
				{
					"listen": "test",
					"script": {
						"id": "fcf944c0-b8c3-4f5a-a973-b02e9c231df0",
						"exec": [
							"pm.test(\"Ping should return status code 200\", function () {",
							"    pm.response.to.have.status(200);",
							"});"
						],
						"type": "text/javascript"
					}
				}
			],
			"request": {
				"method": "GET",
				"header": [],
				"body": {
					"mode": "raw",
					"raw": ""
				},
				"url": {
					"raw": "http://localhost:3030/ping",
					"protocol": "http",
					"host": [
						"localhost"
					],
					"port": "3030",
					"path": [
						"ping"
					]
				}
			},
			"response": []
		},
		{
			"name": "status",
			"event": [
				{
					"listen": "test",
					"script": {
						"id": "4e53eb32-5d39-4bf3-89cf-06b6e0def099",
						"exec": [
							"pm.test(\"Should return 200 with 'UP' status\", function () {",
							"    pm.response.to.have.status(200);",
							"    var jsonData = pm.response.json();",
							"    pm.expect(jsonData.status).to.eql('UP');",
							"});"
						],
						"type": "text/javascript"
					}
				}
			],
			"request": {
				"method": "GET",
				"header": [],
				"body": {
					"mode": "raw",
					"raw": ""
				},
				"url": {
					"raw": "http://localhost:3030/status",
					"protocol": "http",
					"host": [
						"localhost"
					],
					"port": "3030",
					"path": [
						"status"
					]
				}
			},
			"response": []
		},
		{
			"name": "shoe without auth",
			"event": [
				{
					"listen": "test",
					"script": {
						"id": "f961374b-3311-4595-84b0-4e26bb78668f",
						"exec": [
							"pm.test(\"Missing token return 200 and error message\", function () {",
							"    pm.response.to.have.status(200);",
							"    var jsonData = pm.response.json();",
							"    pm.expect(jsonData.success).to.eql(false);",
							"    pm.expect(jsonData.message).to.eql(\"Missing token\");",
							"});"
						],
						"type": "text/javascript"
					}
				}
			],
			"request": {
				"auth": {
					"type": "noauth"
				},
				"method": "GET",
				"header": [],
				"body": {
					"mode": "raw",
					"raw": ""
				},
				"url": {
					"raw": "http://localhost:3030/api/shoe",
					"protocol": "http",
					"host": [
						"localhost"
					],
					"port": "3030",
					"path": [
						"api",
						"shoe"
					]
				}
			},
			"response": []
		},
		{
			"name": "authenticate",
			"event": [
				{
					"listen": "prerequest",
					"script": {
						"id": "3a8f4b13-5a13-40e3-a17a-7806aa8b9b4f",
						"exec": [
							""
						],
						"type": "text/javascript"
					}
				},
				{
					"listen": "test",
					"script": {
						"id": "5d6a95d7-c5a5-4b8e-9b4c-0c0256260287",
						"exec": [
							"pm.test(\"Successful POST request\", function () {",
							"    pm.expect(pm.response.code).to.eql(200);",
							"    var jsonData = pm.response.json();",
							"",
							"    pm.globals.set(\"token\", jsonData.token);",
							"});"
						],
						"type": "text/javascript"
					}
				}
			],
			"request": {
				"method": "POST",
				"header": [
					{
						"key": "Content-Type",
						"name": "Content-Type",
						"value": "application/json",
						"type": "text"
					}
				],
				"body": {
					"mode": "raw",
					"raw": "{\n\t\"client_id\": \"api-client\",\n\t\"client_token\": \"not-so-test-token12312312\"\n}"
				},
				"url": {
					"raw": "http://localhost:3030/authenticate",
					"protocol": "http",
					"host": [
						"localhost"
					],
					"port": "3030",
					"path": [
						"authenticate"
					]
				}
			},
			"response": []
		},
		{
			"name": "shoe list",
			"request": {
				"auth": {
					"type": "noauth"
				},
				"method": "GET",
				"header": [
					{
						"key": "Authorization",
						"value": "Bearer {{token}}",
						"type": "text"
					}
				],
				"body": {
					"mode": "raw",
					"raw": ""
				},
				"url": {
					"raw": "http://localhost:3030/api/shoe",
					"protocol": "http",
					"host": [
						"localhost"
					],
					"port": "3030",
					"path": [
						"api",
						"shoe"
					]
				}
			},
			"response": []
		},
		{
			"name": "get shoe calculation",
			"event": [
				{
					"listen": "test",
					"script": {
						"id": "7f4fe984-073a-4448-b390-018ba637b65f",
						"exec": [
							"pm.test(\"Return correct values for shoe id 1\", function () {",
							"    pm.response.to.have.status(200);",
							"    var jsonData = pm.response.json();",
							"    pm.expect(jsonData.description).to.eql(\"small\");",
							"    pm.expect(jsonData.truesize).to.eql(2.5714285714286);",
							"});",
							""
						],
						"type": "text/javascript"
					}
				}
			],
			"request": {
				"auth": {
					"type": "noauth"
				},
				"method": "GET",
				"header": [
					{
						"key": "Authorization",
						"value": "Bearer {{token}}",
						"type": "text"
					}
				],
				"body": {
					"mode": "raw",
					"raw": ""
				},
				"url": {
					"raw": "http://localhost:3030/api/truesize/1",
					"protocol": "http",
					"host": [
						"localhost"
					],
					"port": "3030",
					"path": [
						"api",
						"truesize",
						"1"
					]
				}
			},
			"response": []
		},
		{
			"name": "add size to 1",
			"event": [
				{
					"listen": "test",
					"script": {
						"id": "7f4fe984-073a-4448-b390-018ba637b65f",
						"exec": [
							"pm.test(\"Return correct values for shoe id 1\", function () {",
							"    pm.response.to.have.status(200);",
							"    var jsonData = pm.response.json();",
							"    pm.expect(jsonData.data.size_calculation).to.eql(2.6666666666666665);",
							"});",
							""
						],
						"type": "text/javascript"
					}
				}
			],
			"request": {
				"auth": {
					"type": "noauth"
				},
				"method": "POST",
				"header": [
					{
						"key": "Authorization",
						"value": "Bearer {{token}}",
						"type": "text"
					},
					{
						"key": "Content-Type",
						"name": "Content-Type",
						"value": "application/json",
						"type": "text"
					}
				],
				"body": {
					"mode": "raw",
					"raw": "{\n\t\"size\": 4\n}"
				},
				"url": {
					"raw": "http://localhost:3030/api/shoe/1",
					"protocol": "http",
					"host": [
						"localhost"
					],
					"port": "3030",
					"path": [
						"api",
						"shoe",
						"1"
					]
				}
			},
			"response": []
		},
		{
			"name": "add new shoe",
			"event": [
				{
					"listen": "test",
					"script": {
						"id": "7f4fe984-073a-4448-b390-018ba637b65f",
						"exec": [
							"pm.test(\"Return new shoe id\", function () {",
							"    pm.response.to.have.status(200);",
							"    var jsonData = pm.response.json();",
							"    pm.globals.set(\"new_id\", jsonData.data.id);",
							"    pm.globals.set(\"new_sizes\", [2,3,2,3,5]);",
							"});",
							""
						],
						"type": "text/javascript"
					}
				}
			],
			"request": {
				"auth": {
					"type": "noauth"
				},
				"method": "POST",
				"header": [
					{
						"key": "Authorization",
						"value": "Bearer {{token}}",
						"type": "text"
					},
					{
						"key": "Content-Type",
						"name": "Content-Type",
						"value": "application/json",
						"type": "text"
					}
				],
				"body": {
					"mode": "raw",
					"raw": "{\n\t\"name\": \"ADIDAS yurt\"\n}"
				},
				"url": {
					"raw": "http://localhost:3030/api/shoe",
					"protocol": "http",
					"host": [
						"localhost"
					],
					"port": "3030",
					"path": [
						"api",
						"shoe"
					]
				}
			},
			"response": []
		},
		{
			"name": "add sizes to 2",
			"event": [
				{
					"listen": "test",
					"script": {
						"id": "7f4fe984-073a-4448-b390-018ba637b65f",
						"exec": [
							"pm.test(\"Return success for adding size to new shoe\", function () {",
							"    pm.response.to.have.status(200);",
							"    var jsonData = pm.response.json();",
							"});",
							"",
							"var sizes = pm.globals.get(\"new_sizes\");",
							"",
							"if (sizes)",
							"    postman.setNextRequest(\"add sizes to 2\");",
							"else",
							"    postman.setNextRequest(\"get shoe calculation for 2\");"
						],
						"type": "text/javascript"
					}
				},
				{
					"listen": "prerequest",
					"script": {
						"id": "f0513b5e-4f5d-4abb-bfdc-8254a3187f6e",
						"exec": [
							"var sizes = pm.globals.get(\"new_sizes\");",
							"",
							"var size = sizes.shift();",
							"if (sizes.length === 0)",
							"    pm.globals.unset(\"new_sizes\");",
							"else",
							"    pm.globals.set(\"new_sizes\", sizes);",
							"",
							"pm.globals.set(\"new_size\", size);"
						],
						"type": "text/javascript"
					}
				}
			],
			"request": {
				"auth": {
					"type": "noauth"
				},
				"method": "POST",
				"header": [
					{
						"key": "Authorization",
						"type": "text",
						"value": "Bearer {{token}}"
					},
					{
						"key": "Content-Type",
						"name": "Content-Type",
						"type": "text",
						"value": "application/json"
					}
				],
				"body": {
					"mode": "raw",
					"raw": "{\n\t\"size\": {{new_size}}\n}"
				},
				"url": {
					"raw": "http://localhost:3030/api/shoe/{{new_id}}",
					"protocol": "http",
					"host": [
						"localhost"
					],
					"port": "3030",
					"path": [
						"api",
						"shoe",
						"{{new_id}}"
					]
				}
			},
			"response": []
		},
		{
			"name": "get shoe calculation for 2",
			"event": [
				{
					"listen": "test",
					"script": {
						"id": "7f4fe984-073a-4448-b390-018ba637b65f",
						"exec": [
							"pm.test(\"Return correct values for shoe id 2\", function () {",
							"    pm.response.to.have.status(200);",
							"    var jsonData = pm.response.json();",
							"    pm.expect(jsonData.description).to.eql(\"true to size\");",
							"    pm.expect(jsonData.truesize).to.eql(3);",
							"});",
							""
						],
						"type": "text/javascript"
					}
				}
			],
			"request": {
				"auth": {
					"type": "noauth"
				},
				"method": "GET",
				"header": [
					{
						"key": "Authorization",
						"type": "text",
						"value": "Bearer {{token}}"
					}
				],
				"body": {
					"mode": "raw",
					"raw": ""
				},
				"url": {
					"raw": "http://localhost:3030/api/truesize/2",
					"protocol": "http",
					"host": [
						"localhost"
					],
					"port": "3030",
					"path": [
						"api",
						"truesize",
						"2"
					]
				}
			},
			"response": []
		}
	]
}